{
  "provider-url": "https://${env.KEYCLOAK_HOST}/realms/statastic",
  "ssl-required": "external",
  "client-id": "sample-jakarta-client",
  "public-client": true,
  "principal-attribute" : "preferred_username",
  "confidential-port": 0
}